-------------------------------------------------------------------------------
Test set: vn.com.javadev.springsercurity.java.SpringSecurityOauth2ApplicationTests
-------------------------------------------------------------------------------
Tests run: 1, Failures: 0, Errors: 0, Skipped: 0, Time elapsed: 4.874 s - in vn.com.javadev.springsercurity.java.SpringSecurityOauth2ApplicationTests
